{
	"variables": [],
	"info": {
		"name": "VehicleInfo",
		"_postman_id": "4599427a-4177-48a6-71cd-890f0a925fc7",
		"description": "",
		"schema": "https://schema.getpostman.com/json/collection/v2.0.0/collection.json"
	},
	"item": [
		{
			"name": "Create User",
			"request": {
				"url": "localhost:8080/users",
				"method": "POST",
				"header": [
					{
						"key": "Content-Type",
						"value": "application/json",
						"description": ""
					}
				],
				"body": {
					"mode": "raw",
					"raw": "{\n\t\"username\":\"test2\",\n\t\"firstName\":\"Test\",\n\t\"lastName\":\"User\",\n\t\"password\":\"test@123\"\n}"
				},
				"description": ""
			},
			"response": []
		},
		{
			"name": "Login User",
			"request": {
				"url": "localhost:8080/users/login",
				"method": "POST",
				"header": [
					{
						"key": "Content-Type",
						"value": "application/json",
						"description": ""
					}
				],
				"body": {
					"mode": "raw",
					"raw": "{\n\t\"username\":\"test2\",\n\t\"password\":\"test@123\"\n}"
				},
				"description": ""
			},
			"response": []
		},
		{
			"name": "Add Vehicle",
			"request": {
				"url": "localhost:8080/vehicles",
				"method": "POST",
				"header": [
					{
						"key": "Content-Type",
						"value": "application/json",
						"description": ""
					},
					{
						"key": "Authorization",
						"value": "Bearer eyJhbGciOiJIUzUxMiJ9.eyJzdWIiOiJ0ZXN0MiIsImV4cCI6MTYwNzExNjU1OCwiaWF0IjoxNjA3MDk4NTU4fQ.xkFmNxMSvMfeNYQZUkoPo1rMNSUMZmitf3i2bzkBTjP2SRxuTQwl1k-cTn3o8BzM0Twiq2sAhUpaxRn8dc2v_w",
						"description": ""
					}
				],
				"body": {
					"mode": "raw",
					"raw": "{\n\t\"manufacturer\":\"Maruti\",\n\t\"model\":\"Swift\",\n\t\"year\": \"2016\",\n\t\"variant\":\"VDI\"\n}"
				},
				"description": ""
			},
			"response": []
		},
		{
			"name": "Add Vehicle Owner",
			"request": {
				"url": "localhost:8080/vehicles/owners",
				"method": "PUT",
				"header": [
					{
						"key": "Content-Type",
						"value": "application/json",
						"description": ""
					},
					{
						"key": "Authorization",
						"value": "Bearer eyJhbGciOiJIUzUxMiJ9.eyJzdWIiOiJ0ZXN0MiIsImV4cCI6MTYwNzAzODUyMiwiaWF0IjoxNjA3MDIwNTIyfQ.3GSDOFGGUIgzvkVte90IZhQn-Xx5p1nA0RdY8DzQ_XGRU1M6RCCR9XPeiUyTB8FiLE734Uh7Fa8yFn9Tz4tpbA",
						"description": ""
					}
				],
				"body": {
					"mode": "raw",
					"raw": "{\n\t\"vehicleId\":1,\n\t\"ownerId\":1,\n\t\"transferredOn\":\"11-12-2020\",\n\t\"comments\":\"test data\"\n}"
				},
				"description": ""
			},
			"response": []
		},
		{
			"name": "Get Vehicle Owners List",
			"request": {
				"url": "localhost:8080/vehicles/1/owners",
				"method": "GET",
				"header": [
					{
						"key": "Content-Type",
						"value": "application/json",
						"description": ""
					},
					{
						"key": "Authorization",
						"value": "Bearer eyJhbGciOiJIUzUxMiJ9.eyJzdWIiOiJ0ZXN0MiIsImV4cCI6MTYwNzAzNTMzNywiaWF0IjoxNjA3MDE3MzM3fQ.ZI774Mh_L3VH6Ghp08uXzDJyIFTTSPl7jpEhur6UPUb8eD2vG_VpZaw_Q26RRuyao9XIBJn4OZNEMi9CHQL7MA",
						"description": ""
					}
				],
				"body": {
					"mode": "raw",
					"raw": ""
				},
				"description": ""
			},
			"response": []
		},
		{
			"name": "Add Maintenance History",
			"request": {
				"url": "localhost:8080/vehicles/maintenance",
				"method": "POST",
				"header": [
					{
						"key": "Content-Type",
						"value": "application/json",
						"description": ""
					},
					{
						"key": "Authorization",
						"value": "Bearer eyJhbGciOiJIUzUxMiJ9.eyJzdWIiOiJ0ZXN0MiIsImV4cCI6MTYwNzAzODUyMiwiaWF0IjoxNjA3MDIwNTIyfQ.3GSDOFGGUIgzvkVte90IZhQn-Xx5p1nA0RdY8DzQ_XGRU1M6RCCR9XPeiUyTB8FiLE734Uh7Fa8yFn9Tz4tpbA",
						"description": ""
					}
				],
				"body": {
					"mode": "raw",
					"raw": "{\n\t\"comments\":\"Test data\",\n\t\"maintainedOn\": \"12-12-2020\",\n\t\"cost\":10.2,\n\t\"vehicle\":{\"id\":1},\n\t\"user\":{\"id\":1}\t\n}"
				},
				"description": ""
			},
			"response": []
		},
		{
			"name": "Get Vehicle Maintenance History",
			"request": {
				"url": "localhost:8080/vehicles/1/maintenance",
				"method": "GET",
				"header": [
					{
						"key": "Authorization",
						"value": "Bearer eyJhbGciOiJIUzUxMiJ9.eyJzdWIiOiJ0ZXN0MiIsImV4cCI6MTYwNzAzODUyMiwiaWF0IjoxNjA3MDIwNTIyfQ.3GSDOFGGUIgzvkVte90IZhQn-Xx5p1nA0RdY8DzQ_XGRU1M6RCCR9XPeiUyTB8FiLE734Uh7Fa8yFn9Tz4tpbA",
						"description": ""
					}
				],
				"body": {},
				"description": ""
			},
			"response": []
		},
		{
			"name": "Get Maintenance Data By Id",
			"request": {
				"url": "localhost:8080/vehicles/maintenance/1",
				"method": "GET",
				"header": [],
				"body": {},
				"description": ""
			},
			"response": []
		},
		{
			"name": "Delete Maintenance Data By Id",
			"request": {
				"url": "localhost:8080/vehicles/maintenance/1",
				"method": "DELETE",
				"header": [
					{
						"key": "Authorization",
						"value": "Bearer eyJhbGciOiJIUzUxMiJ9.eyJzdWIiOiJ0ZXN0MiIsImV4cCI6MTYwNzAzODUyMiwiaWF0IjoxNjA3MDIwNTIyfQ.3GSDOFGGUIgzvkVte90IZhQn-Xx5p1nA0RdY8DzQ_XGRU1M6RCCR9XPeiUyTB8FiLE734Uh7Fa8yFn9Tz4tpbA",
						"description": ""
					}
				],
				"body": {},
				"description": ""
			},
			"response": []
		}
	]
}